[2020-12-15 04:05:37.364341862 +0000][verbose][JsonRPCServer]: Request: {
    "id": 4,
    "jsonrpc": "2.0",
    "method": "createInstance",
    "params": {
        "deploymentId": "s2_tMeQ6OxP1PnCJ",
        "variables": {
        }
    }
}
[2020-12-15 04:05:37.364542272 +0000][error][LocalStorage]: Exception occurred: 5 values for 6 columns
[2020-12-15 04:05:37.454983425 +0000][verbose][BPMN]: Process instance QXp2WTt04VRuN47L (Process_1, StartEvent_17rx53y) for deployed definition s2_tMeQ6OxP1PnCJ is created.
[2020-12-15 04:05:37.455267712 +0000][verbose][BPMN]: instance:QXp2WTt04VRuN47L has started. Variables: null
[2020-12-15 04:05:37.455347757 +0000][error][LocalStorage]: Exception occurred: 6 values for 7 columns
[2020-12-15 04:05:37.455351663 +0000][verbose][BPMN]: instance:QXp2WTt04VRuN47L - element 'StartEvent_17rx53y' start visit by token:iCBLAMkuouuiLFn8
[2020-12-15 04:05:37.491095663 +0000][verbose][BPMN]: instance:QXp2WTt04VRuN47L - token:iCBLAMkuouuiLFn8 stores variables after update by element 'StartEvent_17rx53y'. Variables: null
[2020-12-15 04:05:37.491275940 +0000][verbose][BPMN]: instance:QXp2WTt04VRuN47L - element 'StartEvent_17rx53y' end visit by token:iCBLAMkuouuiLFn8
[2020-12-15 04:05:37.518876625 +0000][verbose][BPMN]: instance:QXp2WTt04VRuN47L - token:iCBLAMkuouuiLFn8 'StartEvent_17rx53y' -> 'SequenceFlow_1nsvge2'
[2020-12-15 04:05:37.518964332 +0000][error][LocalStorage]: Exception occurred: 6 values for 7 columns
[2020-12-15 04:05:37.518968197 +0000][verbose][BPMN]: instance:QXp2WTt04VRuN47L - element 'SequenceFlow_1nsvge2' start visit by token:iCBLAMkuouuiLFn8
[2020-12-15 04:05:37.519116737 +0000][verbose][BPMN]: instance:QXp2WTt04VRuN47L - element 'SequenceFlow_1nsvge2' end visit by token:iCBLAMkuouuiLFn8
[2020-12-15 04:05:37.546860173 +0000][verbose][BPMN]: instance:QXp2WTt04VRuN47L - token:iCBLAMkuouuiLFn8 'SequenceFlow_1nsvge2' -> 'UserTask_0ysxydz'
[2020-12-15 04:05:37.546952810 +0000][error][LocalStorage]: Exception occurred: 6 values for 7 columns
[2020-12-15 04:05:37.546969912 +0000][verbose][BPMN]: instance:QXp2WTt04VRuN47L - element 'UserTask_0ysxydz' start visit by token:iCBLAMkuouuiLFn8
[2020-12-15 04:05:37.547217925 +0000][error][LocalStorage]: Exception occurred: 5 values for 6 columns
[2020-12-15 04:05:37.574847318 +0000][error][LocalStorage]: Exception occurred: 6 values for 7 columns
[2020-12-15 04:05:37.574867475 +0000][verbose][BPMN]: instance:QXp2WTt04VRuN47L - element 'BoundaryEvent_1nll5cn' start visit by token:uZTwljYELDF0omvl
[2020-12-15 04:05:47.575216135 +0000][verbose][BPMN]: instance:QXp2WTt04VRuN47L - element 'BoundaryEvent_1nll5cn' end visit by token:uZTwljYELDF0omvl
[2020-12-15 04:05:47.602874919 +0000][verbose][BPMN]: instance:QXp2WTt04VRuN47L - token:uZTwljYELDF0omvl 'BoundaryEvent_1nll5cn' -> 'SequenceFlow_0ogd4ym'
[2020-12-15 04:05:47.602924369 +0000][error][LocalStorage]: Exception occurred: 6 values for 7 columns
[2020-12-15 04:05:47.602926699 +0000][verbose][BPMN]: instance:QXp2WTt04VRuN47L - element 'SequenceFlow_0ogd4ym' start visit by token:uZTwljYELDF0omvl
[2020-12-15 04:05:47.602988786 +0000][verbose][BPMN]: instance:QXp2WTt04VRuN47L - element 'SequenceFlow_0ogd4ym' end visit by token:uZTwljYELDF0omvl
[2020-12-15 04:05:47.630243018 +0000][verbose][BPMN]: instance:QXp2WTt04VRuN47L - token:uZTwljYELDF0omvl 'SequenceFlow_0ogd4ym' -> 'EndEvent_1mj41xo'
[2020-12-15 04:05:47.630279674 +0000][error][LocalStorage]: Exception occurred: 6 values for 7 columns
[2020-12-15 04:05:47.630281318 +0000][verbose][BPMN]: instance:QXp2WTt04VRuN47L - element 'EndEvent_1mj41xo' start visit by token:uZTwljYELDF0omvl